-------------------------------------------------------------------------------
Test set: org.epam.LibraryTest
-------------------------------------------------------------------------------
Tests run: 16, Failures: 0, Errors: 0, Skipped: 0, Time elapsed: 0.048 s - in org.epam.LibraryTest
