<?xml version="1.0" encoding="UTF-8"?>
<testsuite xmlns:xsi="http://www.w3.org/2001/XMLSchema-instance" xsi:noNamespaceSchemaLocation="https://maven.apache.org/surefire/maven-surefire-plugin/xsd/surefire-test-report.xsd" name="org.epam.LibraryTest" time="0.048" tests="16" errors="0" skipped="0" failures="0">
  <properties>
    <property name="java.specification.version" value="13"/>
    <property name="sun.cpu.isalist" value="amd64"/>
    <property name="sun.jnu.encoding" value="Cp1251"/>
    <property name="java.class.path" value="C:\Users\Egor_Zavgorodnev\Desktop\dev\calculator\CalculatorLibrary\target\test-classes;C:\Users\Egor_Zavgorodnev\Desktop\dev\calculator\CalculatorLibrary\target\classes;C:\Users\Egor_Zavgorodnev\.m2\repository\junit\junit\4.11\junit-4.11.jar;C:\Users\Egor_Zavgorodnev\.m2\repository\org\hamcrest\hamcrest-core\1.3\hamcrest-core-1.3.jar;"/>
    <property name="java.vm.vendor" value="Oracle Corporation"/>
    <property name="sun.arch.data.model" value="64"/>
    <property name="user.variant" value=""/>
    <property name="java.vendor.url" value="https://java.oracle.com/"/>
    <property name="user.timezone" value="Europe/Moscow"/>
    <property name="os.name" value="Windows 10"/>
    <property name="java.vm.specification.version" value="13"/>
    <property name="sun.java.launcher" value="SUN_STANDARD"/>
    <property name="user.country" value="US"/>
    <property name="sun.boot.library.path" value="C:\Program Files (x86)\Java\jdk-13.0.2\bin"/>
    <property name="sun.java.command" value="C:\Users\EGOR_Z~1\AppData\Local\Temp\surefire8445502009648253638\surefirebooter12921159564738207870.jar C:\Users\Egor_Zavgorodnev\AppData\Local\Temp\surefire8445502009648253638 2020-02-03T16-30-29_982-jvmRun1 surefire14689202116389508667tmp surefire_04121739727498967434tmp"/>
    <property name="jdk.debug" value="release"/>
    <property name="surefire.test.class.path" value="C:\Users\Egor_Zavgorodnev\Desktop\dev\calculator\CalculatorLibrary\target\test-classes;C:\Users\Egor_Zavgorodnev\Desktop\dev\calculator\CalculatorLibrary\target\classes;C:\Users\Egor_Zavgorodnev\.m2\repository\junit\junit\4.11\junit-4.11.jar;C:\Users\Egor_Zavgorodnev\.m2\repository\org\hamcrest\hamcrest-core\1.3\hamcrest-core-1.3.jar;"/>
    <property name="sun.cpu.endian" value="little"/>
    <property name="user.home" value="C:\Users\Egor_Zavgorodnev"/>
    <property name="user.language" value="en"/>
    <property name="java.specification.vendor" value="Oracle Corporation"/>
    <property name="java.version.date" value="2020-01-14"/>
    <property name="java.home" value="C:\Program Files (x86)\Java\jdk-13.0.2"/>
    <property name="file.separator" value="\"/>
    <property name="basedir" value="C:\Users\Egor_Zavgorodnev\Desktop\dev\calculator\CalculatorLibrary"/>
    <property name="java.vm.compressedOopsMode" value="Zero based"/>
    <property name="line.separator" value="&#10;"/>
    <property name="java.vm.specification.vendor" value="Oracle Corporation"/>
    <property name="java.specification.name" value="Java Platform API Specification"/>
    <property name="surefire.real.class.path" value="C:\Users\EGOR_Z~1\AppData\Local\Temp\surefire8445502009648253638\surefirebooter12921159564738207870.jar"/>
    <property name="user.script" value=""/>
    <property name="sun.management.compiler" value="HotSpot 64-Bit Tiered Compilers"/>
    <property name="java.runtime.version" value="13.0.2+8"/>
    <property name="user.name" value="Egor_Zavgorodnev"/>
    <property name="path.separator" value=";"/>
    <property name="os.version" value="10.0"/>
    <property name="java.runtime.name" value="Java(TM) SE Runtime Environment"/>
    <property name="file.encoding" value="Cp1252"/>
    <property name="java.vm.name" value="Java HotSpot(TM) 64-Bit Server VM"/>
    <property name="localRepository" value="C:\Users\Egor_Zavgorodnev\.m2\repository"/>
    <property name="java.vendor.url.bug" value="https://bugreport.java.com/bugreport/"/>
    <property name="java.io.tmpdir" value="C:\Users\EGOR_Z~1\AppData\Local\Temp\"/>
    <property name="java.version" value="13.0.2"/>
    <property name="user.dir" value="C:\Users\Egor_Zavgorodnev\Desktop\dev\calculator\CalculatorLibrary"/>
    <property name="os.arch" value="amd64"/>
    <property name="java.vm.specification.name" value="Java Virtual Machine Specification"/>
    <property name="sun.os.patch.level" value=""/>
    <property name="java.library.path" value="C:\Program Files (x86)\Java\jdk-13.0.2\bin;C:\WINDOWS\Sun\Java\bin;C:\WINDOWS\system32;C:\WINDOWS;C:\Program Files (x86)\Common Files\Oracle\Java\javapath;C:\WINDOWS\system32;C:\WINDOWS;C:\WINDOWS\System32\Wbem;C:\WINDOWS\System32\WindowsPowerShell\v1.0\;C:\WINDOWS\System32\OpenSSH\;C:\Program Files\Git\cmd;C:\Program Files (x86)\Java\jdk-13.0.2\bin;C:\Users\Egor_Zavgorodnev\AppData\Local\Microsoft\WindowsApps;;."/>
    <property name="idea.version2019.3.2" value="true"/>
    <property name="java.vm.info" value="mixed mode, sharing"/>
    <property name="java.vendor" value="Oracle Corporation"/>
    <property name="java.vm.version" value="13.0.2+8"/>
    <property name="sun.io.unicode.encoding" value="UnicodeLittle"/>
    <property name="java.class.version" value="57.0"/>
  </properties>
  <testcase name="calculateTestWithoutSpaces" classname="org.epam.LibraryTest" time="0.005"/>
  <testcase name="negativeTestDivideByZero" classname="org.epam.LibraryTest" time="0"/>
  <testcase name="negativeTestTooLargeExpression" classname="org.epam.LibraryTest" time="0"/>
  <testcase name="negativeTestExpressionIsEmpty" classname="org.epam.LibraryTest" time="0"/>
  <testcase name="negativeTestDegrees" classname="org.epam.LibraryTest" time="0"/>
  <testcase name="negativeTestAbracadabra" classname="org.epam.LibraryTest" time="0"/>
  <testcase name="calculateTestShouldReturn12250dot6" classname="org.epam.LibraryTest" time="0"/>
  <testcase name="calculateTestRootOfFractalNumber" classname="org.epam.LibraryTest" time="0"/>
  <testcase name="calculateTestOperatorMultiplyInTheEnd" classname="org.epam.LibraryTest" time="0"/>
  <testcase name="negativeTestRootOfNegativeNumber" classname="org.epam.LibraryTest" time="0"/>
  <testcase name="calculateTestNegativeResult" classname="org.epam.LibraryTest" time="0"/>
  <testcase name="calculateTestOperatorsPlusAndMinus" classname="org.epam.LibraryTest" time="0"/>
  <testcase name="negativeTestDualOperator" classname="org.epam.LibraryTest" time="0"/>
  <testcase name="calculateTestOperatorsMultiplyAndDivide" classname="org.epam.LibraryTest" time="0"/>
  <testcase name="negativeTestTooLargeNumbers" classname="org.epam.LibraryTest" time="0"/>
  <testcase name="negativeTestLetters" classname="org.epam.LibraryTest" time="0.001"/>
</testsuite>